{
    "usermanagement": {
        "field": "usermanagement",
        "active": false,
        "path": "/config/useradmin",
        "routername": {
            "config": "configuseradmin"
        },
        "icon": "account-multiple-check",
        "id": 1,
        "is_app":true,
        "isinstalled": true,
        "permission": ["nopermission"],
        "info": {
            "version": "0.4.48",
            "branch": "vuejs",
            "timestamp": "2020-11-12T16:19:00Z"
        },
        "bgcolor": "color: #992B94;"
    },
    "publishmonitor": {
        "field": "publishmonitor",
        "active": false,
        "path": "/config/publishmonitor",
        "routername": {
            "config": "configpublishmonitor"
        },
        "icon": "console-line",
        "id": 10,
        "is_app":true,
        "isinstalled": false,
        "permission": ["nopermission"],
        "bgcolor": "color: #D21A5C;"
    },
    "customattributes": {
        "field": "customattributes",
        "active": false,
        "path": "/config/useradmin",
        "routername": {
            "config": "configcustomattributes"
        },
        "icon": "focus-field-vertical",
        "id": 5,
        "is_app":true,
        "isinstalled": false,
        "permission": ["nopermission"],
        "bgcolor": "color: #FF6600"
    },
    "publishfromlist": {
        "field": "publishfromlist",
        "active": false,
        "path": "/config/useradmin",
        "routername": {
            "config": "configpublishfromlist"
        },
        "icon": "playlist-edit",
        "id": 7,
        "is_app":true,
        "isinstalled": false,
        "permission": ["nopermission"],
        "bgcolor": "color: #FFC000;"
    },
    "publishqueuemanager": {
        "field": "publishqueuemanager",
        "active": false,
        "path": "/config/useradmin",
        "routername": {
            "config": "configpublishqueuemanager"
        },
        "icon": "call-split",
        "id": 2,
        "is_app":true,
        "isinstalled": false,
        "permission": ["nopermission"],
        "bgcolor": "color: #FFFF5B;"
    },
    "neutraldata": {
        "field": "neutraldata",
        "active": false,
        "path": "/config/useradmin",
        "routername": {
            "config": "configneutraldata"
        },
        "icon": "cube-send",
        "id": 4,
        "is_app":true,
        "isinstalled": false,
        "permission": ["nopermission"],
        "bgcolor": "color: #3EEE6C;"
    },
    "sapchecker": {
        "field": "sapchecker",
        "active": false,
        "path": "/config/useradmin",
        "routername": {
            "config": "configsapchecker"
        },
        "icon": "check-circle-outline",
        "id": 6,
        "is_app":true,
        "isinstalled": false,
        "permission": ["nopermission"],
        "bgcolor": "color: #3FDCFB;"
    },
    "synchronizer": {
        "field": "synchronizer",
        "active": false,
        "path": "/config/useradmin",
        "routername": {
            "config": "configsynchronizer"
        },
        "icon": "file-sync-outline",
        "id": 3,
        "is_app":true,
        "isinstalled": false,
        "permission": ["nopermission"],
        "bgcolor": "color: #0075EA;"
    }
}