[
    { "timestamp": 1523218028000, "title": "this is the title 1", "content": "initial commit, blank configuration (skelett)", "filename": "neutraldata_1523218028000.json", "active": false, "username": "anton" },
    { "timestamp": 1533418028000, "title": "alfonso", "content": "testing output pdf,stp to test outpath \"D:/temp/Test_gia_apps/Einkauf\" ", "filename": "neutraldata_153341802800.json", "active": false, "username": "ruedi" },
    { "timestamp": 1534418028001, "title": "alfonso", "content": "added lifecycle filter", "filename": "neutraldata_1533418028000.json", "active": false, "username": "anton" },
    { "timestamp": 1546418028002, "title": "alfonso", "content": "put to productive path", "filename": "neutraldata_1546418028002.json", "active": false, "username": "anton" },
    { "timestamp": 1555418028003, "title": "alfonso", "content": "more filters and email notification", "filename": "neutraldata_1555418028003.json", "active": false, "username": "alfonso" },
    { "timestamp": 1556318028018, "title": "alfonso", "content": "some minor changes", "filename": "neutraldata_1556318028018.json", "active": true, "username": "alpeföhn" }
]