{
    "eligibleList":
    [
        {
            "usermanagement": ["adminpermission"],
            "isgroup":false,
            "id": 0,
            "publishmanager":["adminpermission"],
            "publishqueuemanager":["adminpermission"],
            "neutraldata":["adminpermission"],
            "customattributes":["adminpermission"],
            "sapchecker":["adminpermission"],
            "publishfromlist":["adminpermission"],
            "username":"Administrators"
            
        },
        {
            "usermanagement":["configreadonly"],
            "isgroup":true,
            "id": 1,
            "publishqueuemanager":["configreadonly"],
            "neutraldata":["configreadonly"],
            "customattributes":["configreadonly"],
            "sapchecker":["configreadonly"],
            "publishfromlist":["configreadonly"],
            "username":"gia-adm"
        },
        {
            "usermanagement":["adminpermission"],
            "isgroup":false,
            "id": 2,
            "publishqueuemanager":["adminpermission"],
            "neutraldata":["adminpermission"],
            "customattributes":["adminpermission"],
            "sapchecker":["adminpermission"],
            "publishfromlist":["adminpermission"],
            "username":"anton"
        },
        {
            "usermanagement":["adminpermission"],
            "isgroup":false,
            "id": 3,
            "publishqueuemanager":["adminpermission"],
            "neutraldata":["adminpermission"],
            "customattributes":["adminpermission"],
            "sapchecker":["adminpermission"],
            "publishfromlist":["adminpermission"],
            "username":"giakrh"
        }
    ],
    "timestamp": 1231321321465
}
