{
  "config_error": "No error",
  "history": [
    {
      "filename": "usermanagement_1586181984696.json",
      "active": false,
      "title": "not defined",
      "content": "Administrators, giadlo and wcadmin added",
      "timestamp": "1586181984696",
      "username": "wcadmin"
    },
    {
      "filename": "usermanagement_1587997709751.json",
      "active": false,
      "title": "not defined",
      "content": "giakrh added",
      "timestamp": "1587997709751",
      "username": "giamhi-adm"
    },
    {
      "filename": "usermanagement_1590408733605.json",
      "active": true,
      "title": "not defined",
      "content": "publishmonitor admin right for admins",
      "timestamp": "1590408733605",
      "username": "giamhi-adm"
    }
  ],
  "config_path": "D:\\GIA\\windchillapps\\config\\usermanagement\\usermanagement_1590408733605.json",
  "config_successful_read": true,
  "has_onoff": false,
  "history_error": "No error found",
  "config": {
    "config": [
      {
        "usermanagement": [
          "adminpermission"
        ],
        "publishqueuemanager": [
          "adminpermission"
        ],
        "isgroup": true,
        "customnamebuilder": [
          "adminpermission"
        ],
        "neutraldata": [
          "adminpermission"
        ],
        "id": 1586181521089,
        "customattributes": [
          "adminpermission"
        ],
        "sapchecker": [
          "adminpermission"
        ],
        "publishfromlist": [
          "adminpermission"
        ],
        "username": "GIA Heavy User"
      },
      {
        "usermanagement": [
          "readonly"
        ],
        "publishqueuemanager": [
          "readonly"
        ],
        "customnamebuilder": [
          "readonly"
        ],
        "neutraldata": [
          "readonly"
        ],
        "id": 1586181523133,
        "customattributes": [
          "readonly"
        ],
        "sapchecker": [
          "readonly"
        ],
        "publishfromlist": [
          "readonly"
        ],
        "username": "giadlo"
      },
      {
        "usermanagement": [
          "adminpermission"
        ],
        "publishqueuemanager": [
          "nopermission"
        ],
        "customnamebuilder": [
          "nopermission"
        ],
        "neutraldata": [
          "nopermission"
        ],
        "id": 1586181521967,
        "customattributes": [
          "nopermission"
        ],
        "sapchecker": [
          "nopermission"
        ],
        "publishfromlist": [
          "nopermission"
        ],
        "username": "wcadmin"
      },
      {
        "usermanagement": [
          "readonly"
        ],
        "publishqueuemanager": [
          "readonly"
        ],
        "customnamebuilder": [
          "readonly"
        ],
        "neutraldata": [
          "readonly"
        ],
        "id": 1587997678657,
        "customattributes": [
          "readonly"
        ],
        "sapchecker": [
          "readonly"
        ],
        "publishfromlist": [
          "readonly"
        ],
        "username": "giakrh"
      },
      {
        "usermanagement": [
          "adminpermission"
        ],
        "publishmonitor": [
          "adminpermission"
        ],
        "publishqueuemanager": [
          "adminpermission"
        ],
        "isgroup": true,
        "customnamebuilder": [
          "adminpermission"
        ],
        "neutraldata": [
          "adminpermission"
        ],
        "id": 1586181521089,
        "customattributes": [
          "adminpermission"
        ],
        "sapchecker": [
          "adminpermission"
        ],
        "publishfromlist": [
          "adminpermission"
        ],
        "username": "Administrators"
      }
    ]
  },
  "history_info": {
    "filename": "usermanagement_history.json",
    "filepath": "D:\\GIA\\windchillapps\\config\\usermanagement/usermanagement_history.json",
    "creation_timestamp": 1590500350425
  },
  "md5": "7ba9ad8aa3a0be2381c7700426193fcf"
}