{
  "config_error": "No error",
  "history": [
    {
      "filename": "usermanagement_1586181984696.json",
      "active": false,
      "title": "not defined",
      "content": "Administrators, giadlo and wcadmin added",
      "timestamp": "1586181984696",
      "username": "wcadmin"
    },
    {
      "filename": "usermanagement_1587997709751.json",
      "active": false,
      "title": "not defined",
      "content": "giakrh added",
      "timestamp": "1587997709751",
      "username": "giamhi-adm"
    },
    {
      "filename": "usermanagement_1590408733605.json",
      "active": true,
      "title": "not defined",
      "content": "publishmonitor admin right for admins",
      "timestamp": "1590408733605",
      "username": "giamhi-adm"
    }
  ],
  "config_path": "D:\\GIA\\windchillapps\\config\\synchronizer\\synchronizer_1590408733605.json",
  "config_successful_read": true,
  "has_onoff": false,
  "history_error": "No error found",
  "config": {
      "parameters": [
        {
          "define_attributes": [
            {
              "external_reference": "WTPART_NUMBER",
              "filters": [
                {
                  "filter_key": "is_wtpart"
                }
              ],
              "parameter_key": "number"
            },
            {
              "external_reference": "SECONDARY_GROUDP_ID",
              "attribute_type": "enumerated_list",
              "filters": [
                {
                  "filter_key": "is_wtpart"
                }
              ],
              "internal_attribute_name": "RHB_DESCRIPTION",
              "parameter_key": "iba_attribute"
            },
            {
              "cut_string": [
                {
                  "mode": "rcut",
                  "nr_of_cutting_chars": 1
                }
              ],
              "external_reference": "PRIMARY_GROUDP_ID",
              "attribute_type": "enumerated_list",
              "filters": [
                {
                  "filter_key": "is_wtpart"
                }
              ],
              "internal_attribute_name": "RHB_DESCRIPTION",
              "parameter_key": "iba_attribute"
            }
          ],
          "allowed_sources": [
            "manual",
            "multi_job"
          ],
          "filters": [
            {
              "filter_key": "lifecycle_state",
              "filter_values": [
                "INWORK"
              ]
            },
            {
              "filter_key": "part_iba_attributes",
              "filter_attribute": "GIA_SYNCHRONIZER",
              "filter_values": [
                "true"
              ]
            }
          ],
          "config_items": [
            {
              "filters": [
                {
                  "filter_values": [
                    "CADDRAWING"
                  ],
                  "filter_key": "indicator"
                }
              ],
              "new_values": [
                "!{WTPART_NUMBER}D"
              ],
              "parameter_key": "number"
            },
            {
              "filters": [
                {
                  "filter_values": [
                    "CADCOMPONENT"
                  ],
                  "filter_key": "indicator"
                }
              ],
              "new_values": [
                "!{WTPART_NUMBER}M"
              ],
              "parameter_key": "number"
            },
            {
              "filters": [
                {
                  "filter_values": [
                    "CADCOMPONENT"
                  ],
                  "filter_key": "indicator"
                }
              ],
              "new_values": [
                "!{WTPART_NUMBER}"
              ],
              "parameter_key": "filename"
            },
            {
              "filters": [
                {
                  "filter_values": [
                    "CADDRAWING"
                  ],
                  "filter_key": "indicator"
                }
              ],
              "new_values": [
                "!{WTPART_NUMBER}"
              ],
              "parameter_key": "filename"
            },
            {
              "force_write_iba": true,
              "attribute_type": "normal",
              "iba_attribute": "RHB_SECONDARYGROUPID",
              "filters": [
                {
                  "filter_key": "is_wtpart"
                }
              ],
              "new_values": [
                "!{SECONDARY_GROUDP_ID}"
              ],
              "parameter_key": "iba_attribute"
            },
            {
              "force_write_iba": true,
              "attribute_type": "normal",
              "iba_attribute": "RHB_PRIMARYGROUPID",
              "filters": [
                {
                  "filter_key": "is_wtpart"
                }
              ],
              "new_values": [
                "!{PRIMARY_GROUDP_ID}"
              ],
              "parameter_key": "iba_attribute"
            }
          ]
        }
      ]
  },
  "history_info": {
    "filename": "usermanagement_history.json",
    "filepath": "D:\\GIA\\windchillapps\\config\\usermanagement/usermanagement_history.json",
    "creation_timestamp": 1590500350425
  },
  "md5": "7ba9ad8aa3a0be2381c7700426193fcf"
}